emg,time
0.73,0.01
1.35,0.03
1.91,0.03
2.27,0.05
2.63,0.06
3.04,0.07
3.39,0.08
3.67,0.09
3.82,0.10
3.88,0.11
4.05,0.12
4.20,0.12
4.27,0.13
4.26,0.15
4.23,0.15
4.23,0.17
4.35,0.18
4.44,0.19
4.50,0.20
4.56,0.21
4.61,0.22
4.63,0.23
4.62,0.24
4.65,0.25
4.68,0.26
4.61,0.27
4.60,0.28
4.60,0.29
4.60,0.31
4.51,0.32
4.33,0.33
4.19,0.34
4.31,0.35
4.39,0.36
4.47,0.38
4.50,0.39
4.54,0.40
4.60,0.41
4.64,0.42
4.67,0.43
4.70,0.44
4.72,0.45
4.73,0.47
4.75,0.48
4.76,0.49
4.76,0.50
4.77,0.51
4.77,0.52
4.71,0.54
4.64,0.55
4.63,0.56
4.66,0.57
4.68,0.58
4.70,0.59
4.72,0.60
4.74,0.61
4.75,0.63
4.76,0.64
4.77,0.65
4.74,0.66
4.60,0.67
4.38,0.68
4.14,0.70
4.05,0.71
4.15,0.72
4.28,0.73
4.38,0.74
4.47,0.75
4.53,0.76
4.59,0.78
4.63,0.79
4.66,0.80
4.69,0.81
4.71,0.82
4.73,0.83
4.71,0.84
4.67,0.86
4.59,0.87
4.54,0.88
4.59,0.89
4.63,0.90
4.67,0.91
4.69,0.92
4.72,0.94
4.73,0.95
4.75,0.96
4.76,0.97
4.77,0.98
4.66,0.99
4.57,1.00
4.50,1.02
4.36,1.03
4.14,1.04
4.12,1.05
4.26,1.06
4.37,1.07
4.45,1.08
4.52,1.10
4.58,1.11
4.62,1.12
4.66,1.13
4.69,1.14
4.71,1.15
4.64,1.16
4.67,1.18
4.69,1.19
4.72,1.20
4.73,1.21
4.74,1.22
4.76,1.23
4.76,1.25
4.77,1.26
4.78,1.27
4.78,1.28
4.78,1.29
4.79,1.30
4.79,1.31
4.79,1.32
4.79,1.34
4.79,1.35
4.79,1.36
4.80,1.37
4.80,1.38
4.80,1.39
4.80,1.41
4.80,1.42
4.80,1.43
4.80,1.44
4.80,1.45
4.80,1.46
4.80,1.47
4.80,1.48
4.79,1.50
4.79,1.51
4.79,1.52
4.72,1.53
4.56,1.54
4.36,1.55
4.12,1.56
3.86,1.58
3.58,1.59
3.31,1.60
3.09,1.61
3.01,1.62
3.18,1.63
3.42,1.65
3.60,1.66
3.80,1.67
3.85,1.68
3.82,1.69
3.85,1.70
3.91,1.71
3.85,1.73
3.75,1.74
3.60,1.75
3.45,1.76
3.28,1.77
3.12,1.78
3.01,1.79
3.31,1.81
3.46,1.82
3.63,1.83
3.75,1.84
3.87,1.85
3.91,1.86
3.92,1.87
3.94,1.89
3.97,1.90
3.99,1.91
4.03,1.92
4.01,1.93
3.95,1.94
3.92,1.95
3.97,1.97
4.14,1.98
4.27,1.99
4.37,2.00
4.46,2.01
4.53,2.02
4.54,2.03
4.48,2.05
4.41,2.06
4.35,2.07
4.24,2.08
4.10,2.09
3.91,2.10
3.78,2.11
3.70,2.13
3.84,2.14
4.03,2.15
4.18,2.16
4.28,2.17
4.31,2.18
4.40,2.19
4.48,2.21
4.54,2.22
4.59,2.23
4.64,2.24
4.67,2.25
4.69,2.26
4.72,2.27
4.73,2.29
4.75,2.30
4.76,2.31
4.75,2.32
4.71,2.33
4.73,2.34
4.74,2.35
4.76,2.37
4.76,2.38
4.75,2.39
4.76,2.40
4.77,2.41
4.77,2.42
4.75,2.43
4.62,2.45
4.47,2.46
4.25,2.47
3.99,2.48
3.70,2.49
3.50,2.50
3.62,2.52
3.86,2.53
4.04,2.54
4.19,2.55
4.31,2.56
4.38,2.57
4.37,2.58
4.36,2.59
4.28,2.61
4.18,2.62
4.08,2.63
4.03,2.64
4.00,2.65
4.03,2.66
4.10,2.67
4.24,2.69
4.35,2.70
4.44,2.71
4.51,2.72
4.55,2.73
4.50,2.74
4.38,2.75
4.29,2.77
4.15,2.78
3.97,2.79
3.75,2.80
3.57,2.81
3.52,2.82
3.55,2.84
3.56,2.85
3.81,2.86
4.01,2.87
4.17,2.88
4.29,2.89
4.39,2.90
4.47,2.92
4.54,2.93
4.59,2.94
4.63,2.95
4.67,2.96
4.69,2.97
4.71,2.98
4.73,3.00
4.74,3.01
4.76,3.02
4.76,3.03
4.77,3.04
4.78,3.05
4.78,3.06
4.79,3.07
4.79,3.09
4.79,3.10
4.79,3.11
4.79,3.12
4.75,3.13
4.73,3.14
4.74,3.16
4.71,3.17
4.63,3.18
4.54,3.19
4.40,3.20
4.24,3.21
4.05,3.22
3.99,3.24
4.07,3.25
4.08,3.26
4.09,3.27
4.17,3.28
4.20,3.29
4.19,3.30
4.26,3.32
4.37,3.33
4.43,3.34
4.38,3.35
4.27,3.36
4.10,3.37
3.88,3.38
3.64,3.40
3.42,3.41
3.21,3.42
3.04,3.43
2.93,3.44
2.86,3.45
2.76,3.46
2.63,3.48
2.74,3.49
2.82,3.50
2.84,3.51
2.92,3.52
2.90,3.53
2.92,3.54
2.95,3.56
3.05,3.57
3.14,3.58
3.32,3.59
3.56,3.60
3.70,3.61
3.78,3.62
3.78,3.64
3.89,3.65
4.05,3.66
4.07,3.67
4.05,3.68
3.97,3.69
3.94,3.70
3.91,3.72
3.81,3.73
3.78,3.74
3.69,3.75
3.63,3.76
3.54,3.77
3.51,3.78
3.45,3.80
3.39,3.81
3.38,3.82
3.34,3.83
3.40,3.84
3.49,3.85
3.64,3.86
3.87,3.88
4.06,3.89
4.21,3.90
4.32,3.91
4.42,3.92
4.50,3.93
4.56,3.94
4.61,3.96
4.64,3.97
4.68,3.98
4.70,3.99
4.72,4.00
4.74,4.01
4.75,4.02
4.76,4.04
4.77,4.05
4.77,4.06
4.78,4.07
4.78,4.08
4.79,4.09
4.79,4.11
4.79,4.12
4.79,4.13
4.79,4.14
4.80,4.15
4.80,4.16
4.80,4.17
4.80,4.18
4.80,4.20
4.80,4.21
4.80,4.22
4.80,4.23
4.80,4.24
4.74,4.25
4.63,4.26
4.44,4.28
4.20,4.29
3.99,4.30
3.82,4.31
3.67,4.32
3.73,4.33
3.73,4.34
3.79,4.36
3.99,4.37
4.15,4.38
4.28,4.39
4.37,4.40
4.46,4.41
4.53,4.42
4.58,4.44
4.52,4.45
4.39,4.46
4.23,4.47
4.12,4.48
4.00,4.49
3.99,4.51
3.98,4.52
4.14,4.53
4.27,4.54
4.38,4.55
4.46,4.56
4.48,4.57
4.43,4.59
4.28,4.60
4.17,4.61
4.15,4.62
4.20,4.63
4.21,4.64
4.29,4.65
4.23,4.67
4.09,4.68
3.96,4.69
3.90,4.70
4.01,4.71
4.15,4.72
4.19,4.73
4.31,4.75
4.41,4.76
4.49,4.77
4.55,4.78
4.53,4.79
4.54,4.80
4.56,4.81
4.54,4.82
4.59,4.84
4.63,4.85
4.67,4.86
4.69,4.87
4.71,4.88
4.73,4.89
4.74,4.91
4.76,4.92
4.76,4.93
4.77,4.94
4.78,4.95
4.78,4.96
4.79,4.97
4.79,4.99
4.79,5.00
4.79,5.01
4.79,5.02
4.79,5.03
4.80,5.04
4.80,5.05
4.80,5.07
4.80,5.08
4.80,5.09
4.80,5.10
4.80,5.11
4.80,5.12
4.80,5.13
4.74,5.15
4.58,5.16
4.45,5.17
4.25,5.18
4.02,5.19
3.83,5.20
3.78,5.21
3.79,5.23
3.99,5.24
4.15,5.25
4.28,5.26
4.39,5.27
4.44,5.28
4.50,5.29
4.47,5.31
4.45,5.32
4.45,5.33
4.40,5.34
4.37,5.35
4.23,5.36
4.13,5.37
4.07,5.39
4.01,5.40
4.03,5.41
4.18,5.42
4.25,5.43
4.21,5.44
4.07,5.45
3.89,5.47
3.76,5.48
3.62,5.49
3.53,5.50
3.44,5.51
3.37,5.52
3.33,5.53
3.27,5.55
3.26,5.56
3.30,5.57
3.33,5.58
3.62,5.59
3.86,5.60
4.05,5.61
4.20,5.63
4.32,5.64
4.41,5.65
4.42,5.66
4.36,5.67
4.27,5.68
4.21,5.70
4.22,5.71
4.13,5.72
3.99,5.73
3.81,5.74
3.96,5.75
4.13,5.76
4.27,5.78
4.37,5.79
4.46,5.80
4.53,5.81
4.58,5.82
4.62,5.83
4.66,5.84
4.69,5.86
4.71,5.87
4.73,5.88
4.69,5.89
4.58,5.90
4.53,5.91
4.51,5.92
4.43,5.93
4.39,5.95
4.42,5.96
4.50,5.97
4.54,5.98
4.59,5.99
4.63,6.00
4.67,6.01
4.69,6.03
4.65,6.04
4.56,6.05
4.47,6.06
4.32,6.07
4.12,6.08
3.91,6.10
3.80,6.11
3.66,6.12
3.49,6.13
3.34,6.14
3.35,6.15
3.45,6.16
3.51,6.18
3.54,6.19
3.50,6.20
3.68,6.21
3.76,6.22
3.76,6.23
3.70,6.24
3.73,6.26
3.82,6.27
3.86,6.28
3.90,6.29
3.84,6.30
3.74,6.31
3.63,6.32
3.65,6.34
3.67,6.35
3.65,6.36
3.68,6.37
3.70,6.38
3.73,6.39
3.72,6.40
3.66,6.42
3.57,6.43
3.54,6.44
3.43,6.45
3.29,6.46
3.17,6.47
3.04,6.48
3.05,6.50
3.16,6.51
3.23,6.52
3.38,6.53
3.61,6.54
3.75,6.55
3.82,6.56
3.92,6.58
4.02,6.59
4.18,6.60
4.28,6.61
4.29,6.62
4.27,6.63
4.22,6.64
4.33,6.66
4.43,6.67
4.50,6.68
4.56,6.69
4.61,6.70
4.65,6.71
4.68,6.72
4.70,6.74
4.72,6.75
4.74,6.76
4.75,6.77
4.76,6.78
4.77,6.79
4.77,6.80
4.78,6.82
4.78,6.83
4.79,6.84
4.79,6.85
4.79,6.86
4.79,6.87
4.79,6.88
4.80,6.90
4.80,6.91
4.74,6.92
4.59,6.93
4.40,6.94
4.21,6.95
3.98,6.97
3.71,6.98
3.45,6.99
3.18,7.00
2.95,7.01
2.91,7.02
2.95,7.03
3.28,7.04
3.51,7.06
3.61,7.07
3.66,7.08
3.79,7.09
3.95,7.10
4.05,7.11
4.08,7.12
3.98,7.14
3.83,7.15
3.62,7.16
3.41,7.17
3.38,7.18
3.42,7.19
3.61,7.20
3.85,7.22
3.96,7.23
4.01,7.24
4.06,7.25
4.02,7.26
3.95,7.27
3.82,7.28
3.70,7.30
3.66,7.31
3.67,7.32
3.64,7.33
3.75,7.34
3.85,7.35
3.85,7.37
3.76,7.38
3.72,7.39
3.65,7.40
3.59,7.41
3.51,7.42
3.36,7.43
3.22,7.45
3.09,7.46
3.05,7.47
3.02,7.48
3.01,7.49
3.07,7.50
3.16,7.51
3.27,7.53
3.32,7.54
3.61,7.55
3.85,7.56
4.04,7.57
4.19,7.58
4.31,7.59
4.41,7.61
4.49,7.62
4.55,7.63
4.53,7.64
4.58,7.65
4.63,7.66
4.66,7.67
4.69,7.68
4.69,7.70
4.71,7.71
4.67,7.72
4.68,7.73
4.70,7.74
4.72,7.75
4.74,7.77
4.75,7.78
4.76,7.79
4.77,7.80
4.77,7.81
4.78,7.82
4.78,7.83
4.72,7.85
4.69,7.86
4.54,7.87
4.38,7.88
4.26,7.89
4.22,7.90
4.20,7.91
4.24,7.93
4.25,7.94
4.17,7.95
4.04,7.96
3.90,7.97
3.84,7.98
3.78,7.99
3.66,8.01
3.50,8.02
3.47,8.03
3.42,8.04
3.37,8.05
3.26,8.06
3.23,8.07
3.32,8.09
3.32,8.10
3.34,8.11
3.38,8.12
3.35,8.13
3.28,8.14
3.22,8.15
3.19,8.17
3.12,8.18
3.04,8.19
2.98,8.20
2.99,8.21
3.04,8.22
3.13,8.23
3.29,8.25
3.55,8.26
3.78,8.27
3.99,8.28
4.15,8.29
4.28,8.30
4.35,8.31
4.31,8.33
4.19,8.34
4.03,8.35
3.86,8.36
3.69,8.37
3.56,8.38
3.46,8.39
3.34,8.41
3.17,8.42
3.18,8.43
3.29,8.44
3.59,8.45
3.84,8.46
4.03,8.47
4.18,8.49
4.30,8.50
4.40,8.51
4.48,8.52
4.55,8.53
4.60,8.54
4.64,8.56
4.67,8.57
4.70,8.58
4.72,8.59
4.73,8.60
4.75,8.61
4.76,8.62
4.76,8.64
4.77,8.65
4.78,8.66
4.78,8.67
4.79,8.68
4.79,8.69
4.79,8.70
4.79,8.72
4.80,8.73
4.79,8.74
4.67,8.75
4.50,8.76
4.32,8.77
4.16,8.78
4.18,8.79
4.21,8.81
4.33,8.82
4.42,8.83
4.50,8.84
4.51,8.85
4.41,8.86
4.28,8.87
4.10,8.89
4.07,8.90
4.07,8.91
4.01,8.92
3.94,8.93
3.93,8.94
3.91,8.96
3.98,8.97
4.03,8.98
4.13,8.99
4.26,9.00
4.37,9.01
4.46,9.02
4.49,9.04
4.44,9.05
4.40,9.06
4.42,9.07
4.37,9.08
4.40,9.09
4.48,9.10
4.49,9.12
4.54,9.13
4.56,9.14
4.49,9.15
4.38,9.16
4.33,9.17
4.24,9.18
4.17,9.20
4.11,9.21
3.98,9.22
3.80,9.23
3.60,9.24
3.43,9.25
3.24,9.26
3.04,9.28
3.02,9.29
3.05,9.30
3.07,9.31
3.23,9.32
3.46,9.33
3.67,9.34
3.83,9.36
3.91,9.37
3.97,9.38
4.02,9.39
4.17,9.40
4.30,9.41
4.40,9.42
4.48,9.44
4.54,9.45
4.59,9.46
4.64,9.47
4.66,9.48
4.68,9.49
4.71,9.50
4.73,9.52
4.74,9.53
4.75,9.54
4.76,9.55
4.77,9.56
4.75,9.57
4.66,9.58
4.55,9.60
4.36,9.61
4.14,9.62
3.93,9.63
3.74,9.64
3.57,9.65
3.36,9.66
3.13,9.68
2.92,9.69
2.80,9.70
2.71,9.71
2.88,9.72
3.26,9.73
3.57,9.74
3.81,9.76
4.01,9.77
4.17,9.78
4.30,9.79
4.40,9.80
4.48,9.81
4.54,9.83
4.59,9.84
4.64,9.85
4.67,9.86
4.69,9.87
4.71,9.88
4.73,9.89
4.74,9.90
4.75,9.92
4.76,9.93
4.77,9.94
4.78,9.95
4.78,9.96
4.78,9.97
4.79,9.98
4.79,10.00
4.73,10.01
4.56,10.02
4.41,10.03
4.30,10.05
4.24,10.06
4.27,10.07
4.29,10.08
4.20,10.10
4.16,10.11
4.25,10.12
4.28,10.13
4.18,10.15
4.08,10.16
4.16,10.17
4.29,10.18
4.39,10.20
4.47,10.21
4.54,10.22
4.59,10.23
4.63,10.25
4.66,10.26
4.60,10.27
4.64,10.28
4.67,10.30
4.70,10.31
4.68,10.32
4.70,10.33
4.67,10.35
4.69,10.36
4.71,10.37
4.68,10.38
4.59,10.40
4.63,10.41
4.66,10.42
4.63,10.43
4.56,10.45
4.61,10.46
4.65,10.47
4.62,10.48
4.56,10.50
4.44,10.51
4.26,10.52
4.13,10.53
3.92,10.54
3.69,10.56
3.46,10.57
3.22,10.58
3.02,10.60
2.97,10.61
3.34,10.62
3.63,10.63
3.86,10.65
4.05,10.66
4.20,10.67
4.32,10.68
4.42,10.70
4.49,10.71
4.55,10.72
4.60,10.73
4.64,10.74
4.67,10.76
4.70,10.77
4.72,10.78
4.74,10.79
4.75,10.81
4.76,10.82
4.76,10.83
4.69,10.85
4.71,10.86
4.73,10.87
4.75,10.88
4.76,10.90
4.74,10.91
4.70,10.92
4.57,10.93
4.44,10.94
4.38,10.96
4.45,10.97
4.52,10.98
4.58,10.99
4.62,11.01
4.66,11.02
4.60,11.03
4.51,11.04
4.51,11.06
4.43,11.07
4.43,11.08
4.45,11.09
4.52,11.11
4.55,11.12
4.60,11.13
4.64,11.14
4.68,11.16
4.70,11.17
4.72,11.18
4.74,11.19
4.75,11.21
4.76,11.22
4.77,11.23
4.72,11.24
4.64,11.26
4.66,11.27
4.69,11.28
4.71,11.29
4.73,11.31
4.73,11.32
4.74,11.33
4.76,11.34
4.76,11.36
4.77,11.37
4.75,11.38
4.63,11.39
4.52,11.41
4.33,11.42
4.12,11.43
3.96,11.44
3.80,11.46
3.59,11.47
3.35,11.48
3.23,11.49
3.54,11.51
3.79,11.52
4.00,11.53
4.16,11.54
4.29,11.56
4.39,11.57
4.47,11.58
4.52,11.59
4.49,11.61
4.42,11.62
4.45,11.63
4.44,11.64
4.51,11.66
4.53,11.67
4.58,11.68
4.62,11.69
4.66,11.71
4.69,11.72
4.71,11.73
4.73,11.74
4.74,11.76
4.75,11.77
4.70,11.78
4.60,11.79
4.51,11.81
4.36,11.82
4.26,11.83
4.10,11.84
4.14,11.86
4.28,11.87
4.38,11.88
4.47,11.89
4.53,11.91
4.58,11.92
4.63,11.93
4.63,11.94
4.65,11.96
4.56,11.97
4.43,11.98
4.25,11.99
4.36,12.01
4.43,12.02
4.50,12.03
4.56,12.04
4.61,12.06
4.63,12.07
4.54,12.08
4.60,12.09
4.64,12.11
4.67,12.12
4.67,12.13
4.70,12.14
4.72,12.16
4.74,12.17
4.66,12.18
4.51,12.19
4.39,12.20
4.46,12.22
4.53,12.23
4.58,12.24
4.63,12.26
4.66,12.27
4.69,12.28
4.62,12.29
4.48,12.31
4.34,12.32
4.17,12.33
3.95,12.34
3.68,12.36
3.39,12.37
3.42,12.38
3.69,12.39
3.91,12.40
4.02,12.42
4.17,12.43
4.26,12.44
4.23,12.45
4.13,12.47
4.13,12.48
4.07,12.49
3.94,12.50
3.78,12.52
3.61,12.53
3.41,12.54
3.43,12.56
3.70,12.57
3.92,12.58
4.09,12.59
4.17,12.60
4.20,12.62
4.31,12.63
4.40,12.64
4.46,12.65
4.48,12.67
4.38,12.68
4.22,12.69
4.00,12.70
3.77,12.72
3.74,12.73
3.86,12.74
4.05,12.76
4.20,12.77
4.32,12.78
4.42,12.79
4.49,12.80
4.55,12.82
4.60,12.83
4.64,12.84
4.67,12.85
4.63,12.87
4.59,12.88
4.63,12.89
4.66,12.90
4.69,12.92
4.71,12.93
4.73,12.94
4.74,12.95
4.76,12.97
4.76,12.98
4.77,12.99
4.78,13.00
4.78,13.02
4.79,13.03
4.79,13.04
4.79,13.05
4.79,13.07
4.79,13.08
4.74,13.09
4.68,13.10
4.67,13.12
4.69,13.13
4.71,13.14
4.73,13.15
4.73,13.17
4.74,13.18
4.72,13.19
4.69,13.20
4.64,13.22
4.49,13.23
4.27,13.24
4.02,13.25
3.82,13.27
3.62,13.28
3.41,13.29
3.18,13.30
2.96,13.32
2.87,13.33
2.75,13.34
2.76,13.35
2.72,13.37
2.73,13.38
2.85,13.39
2.99,13.40
3.35,13.42
3.64,13.43
3.87,13.44
4.06,13.45
4.21,13.47
4.32,13.48
4.42,13.49
4.46,13.50
4.46,13.52
4.36,13.53
4.21,13.54
4.01,13.55
3.80,13.57
3.59,13.58
3.49,13.59
3.37,13.60
3.22,13.62
3.31,13.63
3.55,13.64
3.75,13.65
3.96,13.67
4.13,13.68
4.15,13.69
4.23,13.70
4.21,13.72
4.17,13.73
4.09,13.74
4.09,13.75
4.02,13.77
3.90,13.78
4.08,13.79
4.22,13.80
4.34,13.82
4.43,13.83
4.50,13.84
4.56,13.85
4.54,13.86
4.54,13.88
4.50,13.89
4.49,13.90
4.37,13.91
4.18,13.93
4.03,13.94
3.88,13.95
3.84,13.97
3.74,13.98
3.70,13.99
3.71,14.00
3.88,14.02
4.00,14.03
4.07,14.04
4.22,14.05
4.33,14.06
4.43,14.08
4.47,14.09
4.47,14.10
4.37,14.11
4.25,14.13
4.07,14.14
3.89,14.15
3.89,14.16
4.07,14.18
4.11,14.19
4.04,14.20
3.89,14.22
3.69,14.23
3.47,14.24
3.28,14.25
3.14,14.26
3.01,14.28
3.04,14.29
3.39,14.30
3.67,14.31
3.90,14.33
4.08,14.34
4.16,14.35
4.12,14.36
4.02,14.38
3.98,14.39
3.87,14.40
3.73,14.41
3.68,14.43
3.57,14.44
3.43,14.45
3.23,14.46
3.03,14.48
2.87,14.49
2.76,14.50
2.68,14.51
2.58,14.53
2.53,14.54
2.49,14.55
2.68,14.56
3.03,14.58
3.30,14.59
3.60,14.60
3.84,14.61
4.03,14.63
4.18,14.64
4.23,14.65
4.22,14.66
4.11,14.68
4.07,14.69
4.13,14.70
4.23,14.71
4.34,14.73
4.44,14.74
4.51,14.75
4.57,14.76
4.61,14.78
4.65,14.79
4.68,14.80
4.70,14.81
4.72,14.83
4.74,14.84
4.75,14.85
4.76,14.86
4.77,14.88
4.77,14.89
4.78,14.90
4.79,14.91
4.79,14.93
4.79,14.94
4.79,14.95
4.79,14.96
4.80,14.98
4.80,14.99
4.80,15.00
4.80,15.01
4.80,15.03
4.70,15.04
4.52,15.05
4.29,15.06
4.05,15.08
3.83,15.09
3.88,15.10
4.06,15.11
4.21,15.13
4.33,15.14
4.42,15.15
4.43,15.16
4.47,15.18
4.53,15.19
4.59,15.20
4.63,15.21
4.62,15.23
4.51,15.24
4.33,15.25
4.13,15.26
3.93,15.27
3.94,15.29
4.03,15.30
4.02,15.31
3.96,15.33
3.84,15.34
3.73,15.35
3.58,15.36
3.43,15.38
3.34,15.39
3.27,15.40
3.20,15.41
3.16,15.43
3.20,15.44
3.19,15.45
3.11,15.46
2.98,15.47
2.95,15.49
3.00,15.50
3.10,15.51
3.11,15.52
3.08,15.54
2.97,15.55
2.84,15.56
2.75,15.57
2.82,15.59
2.92,15.60
2.99,15.61
3.35,15.63
3.64,15.64
3.87,15.65
4.05,15.66
4.20,15.67
4.32,15.69
4.42,15.70
4.50,15.71
4.56,15.72
4.61,15.74
4.62,15.75
4.56,15.76
4.42,15.77
4.32,15.79
4.20,15.80
4.13,15.81
4.19,15.82
4.24,15.84
4.35,15.85
4.44,15.86
4.51,15.87
4.57,15.89
4.61,15.90
4.59,15.91
4.63,15.92
4.67,15.94
4.69,15.95
4.67,15.96
4.63,15.97
4.53,15.99
4.34,16.00
4.32,16.01
4.22,16.02
4.19,16.04
4.10,16.05
3.92,16.06
3.73,16.07
3.76,16.09
3.72,16.10
3.64,16.11
3.57,16.12
3.57,16.14
3.57,16.15
3.72,16.16
3.87,16.17
3.99,16.19
4.00,16.20
3.93,16.21
3.76,16.22
3.56,16.24
3.41,16.25
3.26,16.26
3.08,16.27
2.89,16.29
2.70,16.30
2.65,16.31
2.61,16.32
2.51,16.34
2.42,16.35
2.31,16.36
2.33,16.37
2.38,16.38
2.46,16.40
2.49,16.41
2.47,16.42
2.41,16.44
2.38,16.45
2.31,16.46
2.27,16.47
2.40,16.49
2.73,16.50
2.98,16.51
3.05,16.52
3.02,16.53
3.01,16.55
3.06,16.56
3.29,16.57
3.49,16.59
3.57,16.60
3.82,16.61
4.01,16.62
4.17,16.63
4.30,16.65
4.35,16.66
4.33,16.67
4.27,16.69
4.26,16.70
4.25,16.71
4.27,16.72
4.25,16.73
4.27,16.75
4.29,16.76
4.30,16.77
4.40,16.78
4.48,16.80
4.54,16.81
4.52,16.82
4.44,16.84
4.33,16.85
4.17,16.86
3.95,16.87
3.68,16.88
3.48,16.90
3.47,16.91
3.54,16.92
3.74,16.93
3.83,16.95
3.90,16.96
4.02,16.97
4.07,16.98
4.08,17.00
4.08,17.01
4.00,17.02
3.97,17.04
3.95,17.05
3.95,17.06
3.90,17.07
3.81,17.09
4.00,17.10
4.16,17.11
4.26,17.12
4.28,17.13
4.23,17.15
4.17,17.16
4.10,17.17
4.05,17.18
4.01,17.20
3.90,17.21
3.83,17.22
3.83,17.23
3.93,17.25
4.10,17.26
4.24,17.27
4.35,17.28
4.44,17.30
4.51,17.31
4.57,17.32
4.62,17.33
4.65,17.35
4.68,17.36
4.71,17.37
4.72,17.38
4.74,17.40
4.75,17.41
4.76,17.42
4.77,17.43
4.77,17.45
4.78,17.46
4.78,17.47
4.79,17.48
4.79,17.50
4.79,17.51
4.79,17.52
4.80,17.53
4.80,17.55
4.80,17.56
4.80,17.57
4.80,17.58
4.80,17.60
4.80,17.61
4.80,17.62
4.80,17.63
4.80,17.65
4.80,17.66
4.80,17.67
4.80,17.68
4.80,17.70
4.80,17.71
4.80,17.72
4.80,17.73
4.80,17.75
4.80,17.76
4.74,17.77
4.58,17.78
4.40,17.79
4.48,17.81
4.54,17.82
4.59,17.83
4.62,17.85
4.65,17.86
4.67,17.87
4.70,17.88
4.72,17.90
4.63,17.91
4.45,17.92
4.24,17.93
4.24,17.95
4.28,17.96
4.39,17.97
4.47,17.98
4.53,18.00
4.59,18.01
4.63,18.02
4.60,18.03
4.53,18.04
4.41,18.06
4.23,18.07
4.14,18.08
4.08,18.10
3.96,18.11
3.82,18.12
3.66,18.13
3.52,18.15
3.52,18.16
3.63,18.17
3.72,18.18
3.79,18.20
3.85,18.21
3.82,18.22
3.74,18.23
3.71,18.25
3.65,18.26
3.62,18.27
3.55,18.28
3.51,18.29
3.60,18.31
3.60,18.32
3.57,18.33
3.57,18.35
3.82,18.36
4.01,18.37
4.17,18.38
4.30,18.39
4.40,18.41
4.48,18.42
4.54,18.43
4.59,18.45
4.64,18.46
4.67,18.47
4.70,18.48
4.72,18.50
4.73,18.51
4.75,18.52
4.76,18.53
4.75,18.54
4.76,18.56
4.77,18.57
4.78,18.58
4.78,18.59
4.78,18.61
4.79,18.62
4.79,18.63
4.79,18.64
4.79,18.66
4.75,18.67
4.61,18.68
4.46,18.70
4.37,18.71
4.46,18.72
4.52,18.73
4.58,18.75
4.62,18.76
4.59,18.77
4.46,18.78
4.30,18.79
4.09,18.81
3.91,18.82
3.72,18.83
3.56,18.84
3.41,18.86
3.22,18.87
3.04,18.88
3.31,18.89
3.49,18.91
3.50,18.92
3.45,18.93
3.32,18.94
3.16,18.96
3.13,18.97
3.21,18.98
3.35,18.99
3.44,19.01
3.60,19.02
3.84,19.03
3.93,19.04
3.95,19.06
3.90,19.07
3.90,19.08
4.08,19.09
4.23,19.11
4.34,19.12
4.43,19.13
4.50,19.14
4.56,19.16
4.61,19.17
4.65,19.18
4.68,19.19
4.70,19.21
4.72,19.22
4.72,19.23
4.74,19.24
4.75,19.26
4.76,19.27
4.77,19.28
4.77,19.29
4.78,19.31
4.78,19.32
4.73,19.33
4.60,19.34
4.42,19.36
4.29,19.37
4.17,19.38
4.15,19.39
4.06,19.41
3.99,19.42
4.03,19.43
4.13,19.44
4.20,19.46
4.22,19.47
4.18,19.48
4.14,19.49
4.11,19.51
4.07,19.52
3.96,19.53
3.78,19.54
3.56,19.56
3.31,19.57
3.14,19.58
3.03,19.59
3.38,19.61
3.67,19.62
3.89,19.63
4.07,19.64
4.22,19.65
4.25,19.67
4.26,19.68
4.24,19.69
4.32,19.71
4.28,19.72
4.24,19.73
4.28,19.74
4.28,19.76
4.31,19.77
4.41,19.78
4.49,19.79
4.55,19.81
4.60,19.82
4.56,19.83
4.51,19.84
4.46,19.86
4.38,19.87
4.44,19.88
4.52,19.89
4.57,19.90
4.62,19.92
4.66,19.93
4.68,19.94
4.70,19.96
4.72,19.97
4.74,19.98
4.75,19.99
4.76,20.01
4.69,20.02
4.62,20.03
4.44,20.04
4.26,20.05
4.23,20.07
4.34,20.08
4.44,20.09
4.51,20.11
4.57,20.12
4.61,20.13
4.65,20.14
4.68,20.15
4.70,20.17
4.72,20.18
4.74,20.19
4.75,20.21
4.76,20.22
4.77,20.23
4.77,20.24
4.78,20.25
4.78,20.27
4.79,20.28
4.78,20.29
4.78,20.30
4.78,20.32
4.79,20.33
4.79,20.34
4.79,20.35
4.79,20.37
4.79,20.38
4.80,20.39
4.80,20.40
4.80,20.42
4.80,20.43
4.80,20.44
4.80,20.45
4.77,20.47
4.67,20.48
4.59,20.49
4.53,20.50
4.58,20.52
4.62,20.53
4.66,20.54
4.69,20.55
4.66,20.57
4.61,20.58
4.53,20.59
4.39,20.61
4.25,20.62
4.32,20.63
4.35,20.64
4.35,20.65
4.38,20.67
4.33,20.68
4.42,20.69
4.40,20.70
4.32,20.72
4.22,20.73
4.12,20.74
4.01,20.75
4.00,20.77
3.92,20.78
3.79,20.79
3.65,20.80
3.51,20.82
3.32,20.83
3.12,20.84
2.96,20.85
2.80,20.87
2.82,20.88
3.09,20.89
3.33,20.90
3.40,20.92
3.37,20.93
3.49,20.94
3.61,20.95
3.64,20.97
3.65,20.98
3.75,20.99
3.73,21.00
3.71,21.02
3.68,21.03
3.65,21.04
3.85,21.05
4.04,21.06
4.19,21.08
4.24,21.09
4.24,21.10
4.25,21.12
4.36,21.13
4.45,21.14
4.52,21.15
4.58,21.17
4.62,21.18
4.66,21.19
4.69,21.20
4.71,21.22
4.73,21.23
4.74,21.24
4.75,21.25
4.76,21.27
4.77,21.28
4.78,21.29
4.78,21.30
4.78,21.31
4.76,21.33
4.64,21.34
4.44,21.35
4.20,21.37
4.04,21.38
4.05,21.39
4.19,21.40
4.23,21.42
4.24,21.43
4.27,21.44
4.38,21.45
4.46,21.46
4.53,21.48
4.51,21.49
4.40,21.50
4.19,21.52
3.99,21.53
3.76,21.54
3.63,21.55
3.56,21.56
3.60,21.58
3.59,21.59
3.58,21.60
3.51,21.62
3.42,21.63
3.32,21.64
3.22,21.65
3.11,21.66
3.06,21.68
2.99,21.69
3.01,21.70
3.21,21.71
3.29,21.73
3.58,21.74
3.82,21.75
4.02,21.76
4.17,21.78
4.30,21.79
4.40,21.80
4.48,21.81
4.48,21.83
4.55,21.84
4.60,21.85
4.64,21.86
4.64,21.88
4.58,21.89
4.47,21.90
4.52,21.91
4.57,21.93
4.61,21.94
4.65,21.95
4.68,21.96
4.70,21.98
4.72,21.99
4.74,22.00
4.75,22.01
4.76,22.03
4.73,22.04
4.74,22.05
4.68,22.06
4.57,22.08
4.51,22.09
4.53,22.10
4.59,22.11
4.63,22.13
4.67,22.14
4.69,22.15
4.71,22.16
4.73,22.18
4.74,22.19
4.76,22.20
4.76,22.21
4.77,22.23
4.78,22.24
4.78,22.25
4.74,22.26
4.59,22.28
4.37,22.29
4.14,22.30
3.89,22.31
3.69,22.33
3.53,22.34
3.44,22.35
3.55,22.36
3.64,22.38
3.86,22.39
4.04,22.40
4.19,22.41
4.28,22.43
4.35,22.44
4.44,22.45
4.51,22.46
4.57,22.48
4.61,22.49
4.65,22.50
4.68,22.51
4.66,22.53
4.61,22.54
4.49,22.55
4.32,22.56
4.23,22.57
4.14,22.59
3.97,22.60
3.90,22.61
3.96,22.63
3.98,22.64
4.05,22.65
4.20,22.66
4.32,22.68
4.42,22.69
4.49,22.70
4.56,22.71
4.60,22.72
4.64,22.74
4.67,22.75
4.70,22.76
4.72,22.78
4.74,22.79
4.75,22.80
4.76,22.81
4.77,22.82
4.77,22.84
4.78,22.85
4.78,22.86
4.79,22.88
4.79,22.89
4.79,22.90
4.79,22.91
4.79,22.93
4.80,22.94
4.80,22.95
4.80,22.96
4.80,22.97
4.80,22.99
4.80,23.00
4.80,23.01
4.80,23.03
4.80,23.04
4.80,23.05
4.80,23.06
4.80,23.07
4.80,23.09
4.80,23.10
4.80,23.11
4.80,23.12
4.80,23.14
4.72,23.15
4.57,23.16
4.36,23.18
4.10,23.19
3.87,23.20
3.70,23.21
3.48,23.22
3.34,23.24
3.40,23.25
3.68,23.26
3.91,23.28
4.09,23.29
4.23,23.30
4.34,23.31
4.43,23.32
4.51,23.34
4.56,23.35
4.61,23.36
4.65,23.37
4.68,23.39
4.70,23.40
4.72,23.41
4.74,23.42
4.75,23.44
4.76,23.45
4.77,23.46
4.77,23.47
4.76,23.49
4.72,23.50
4.67,23.51
4.68,23.52
4.59,23.54
4.48,23.55
4.30,23.56
4.07,23.57
3.82,23.59
4.02,23.60
4.18,23.61
4.30,23.62
4.40,23.64
4.48,23.65
4.54,23.66
4.60,23.67
4.63,23.69
4.67,23.70
4.69,23.71
4.71,23.72
4.73,23.74
4.75,23.75
4.76,23.76
4.76,23.77
4.77,23.79
4.78,23.80
4.78,23.81
4.79,23.82
4.79,23.84
4.79,23.85
4.79,23.86
4.79,23.87
4.79,23.89
4.80,23.90
4.80,23.91
4.80,23.92
4.80,23.94
4.80,23.95
4.79,23.96
4.79,23.97
4.79,23.99
4.79,24.00
4.80,24.01
4.80,24.02
4.76,24.04
4.67,24.05
4.50,24.06
4.26,24.07
4.03,24.09
3.79,24.10
3.57,24.11
3.46,24.12
3.42,24.14
3.35,24.15
3.29,24.16
3.22,24.17
3.42,24.19
3.70,24.20
3.92,24.21
4.09,24.22
4.24,24.23
4.35,24.25
4.44,24.26
4.51,24.27
4.57,24.29
4.61,24.30
4.65,24.31
4.68,24.32
4.70,24.34
4.72,24.35
4.74,24.36
4.75,24.37
4.76,24.38
4.62,24.40
4.41,24.41
4.25,24.42
4.16,24.44
4.15,24.45
4.10,24.46
3.97,24.47
4.14,24.48
4.27,24.50
4.38,24.51
4.46,24.52
4.53,24.54
4.57,24.55
4.59,24.56
4.59,24.57
4.63,24.59
4.67,24.60
4.69,24.61
4.71,24.62
4.73,24.63
4.75,24.65
4.76,24.66
4.76,24.67
4.77,24.69
4.78,24.70
4.78,24.71
4.79,24.72
4.79,24.73
4.79,24.75
4.79,24.76
4.79,24.77
4.72,24.78
4.56,24.80
4.45,24.81
4.52,24.82
4.58,24.83
4.62,24.85
4.66,24.86
4.69,24.87
4.71,24.88
4.73,24.90
4.74,24.91
4.75,24.92
4.76,24.94
4.77,24.95
4.78,24.96
4.72,24.97
4.57,24.98
4.35,25.00
4.21,25.01
4.08,25.02
3.91,25.03
3.74,25.05
3.61,25.06
3.48,25.07
3.47,25.09
3.44,25.10
3.53,25.11
3.72,25.12
3.90,25.13
4.08,25.15
4.23,25.16
4.30,25.17
4.40,25.18
4.48,25.20
4.54,25.21
4.59,25.22
4.63,25.23
4.67,25.25
4.69,25.26
4.71,25.27
4.73,25.28
4.74,25.30
4.76,25.31
4.76,25.32
4.77,25.33
4.75,25.35
4.67,25.36
4.61,25.37
4.52,25.38
4.40,25.40
4.21,25.41
4.25,25.42
4.36,25.43
4.45,25.45
4.52,25.46
4.58,25.47
4.62,25.48
4.54,25.50
4.47,25.51
4.54,25.52
4.59,25.53
4.63,25.55
4.67,25.56
4.69,25.57
4.71,25.58
4.73,25.60
4.74,25.61
4.75,25.62
4.76,25.63
4.77,25.64
4.78,25.66
4.78,25.67
4.78,25.68
4.79,25.70
4.79,25.71
4.79,25.72
4.80,25.73
4.80,25.75
4.80,25.76
4.80,25.77
4.80,25.78
4.80,25.80
4.80,25.81
4.80,25.82
4.80,25.83
4.80,25.85
4.80,25.86
4.80,25.87
4.80,25.88
4.80,25.90
4.80,25.91
4.80,25.92
4.80,25.93
4.80,25.95
4.80,25.96
4.80,25.97
4.80,25.98
4.80,26.00
4.80,26.01
4.80,26.02
4.78,26.03
4.70,26.05
4.58,26.06
4.40,26.07
4.14,26.08
3.88,26.10
3.64,26.11
3.40,26.12
3.40,26.13
3.68,26.14
3.91,26.16
4.09,26.17
4.15,26.18
4.14,26.20
4.11,26.21
4.12,26.22
4.09,26.23
3.97,26.24
3.82,26.26
3.63,26.27
3.50,26.28
3.38,26.30
3.24,26.31
3.11,26.32
3.02,26.33
3.01,26.35
2.96,26.36
2.93,26.37
2.84,26.38
2.82,26.39
2.74,26.41
2.63,26.42
2.52,26.43
2.43,26.44
2.38,26.46
2.67,26.47
3.09,26.48
3.43,26.49
3.71,26.51
3.93,26.52
4.10,26.53
4.24,26.54
4.35,26.56
4.44,26.57
4.51,26.58
4.57,26.60
4.62,26.61
4.65,26.62
4.68,26.63
4.71,26.64
4.72,26.66
4.74,26.67
4.75,26.68
4.76,26.69
4.77,26.71
4.77,26.72
4.78,26.73
4.78,26.74
4.79,26.76
4.75,26.77
4.74,26.78
4.68,26.79
4.61,26.81
4.64,26.82
4.68,26.83
4.70,26.84
4.66,26.86
4.54,26.87
4.37,26.88
4.45,26.89
4.52,26.91
4.57,26.92
4.62,26.93
4.65,26.94
4.68,26.96
4.71,26.97
4.73,26.98
4.74,26.99
4.75,27.01
4.76,27.02
4.77,27.03
4.78,27.04
4.78,27.06
4.78,27.07
4.67,27.08
4.69,27.09
4.71,27.11
4.72,27.12
4.59,27.13
4.39,27.14
4.18,27.16
4.18,27.17
4.24,27.18
4.16,27.19
4.04,27.21
3.97,27.22
3.86,27.23
3.74,27.24
3.64,27.26
3.49,27.27
3.44,27.28
3.46,27.29
3.56,27.31
3.69,27.32
3.78,27.33
3.81,27.34
3.85,27.36
3.96,27.37
4.06,27.38
4.19,27.39
4.31,27.41
4.41,27.42
4.49,27.43
4.55,27.44
4.60,27.46
4.64,27.47
4.67,27.48
4.69,27.49
4.70,27.51
4.68,27.52
4.71,27.53
4.72,27.54
4.74,27.56
4.75,27.57
4.76,27.58
4.77,27.59
4.77,27.61
4.78,27.62
4.78,27.63
4.79,27.64
4.79,27.65
4.79,27.67
4.79,27.68
4.79,27.69
4.80,27.71
4.80,27.72
4.80,27.73
4.80,27.74
4.80,27.76
4.80,27.77
4.73,27.78
4.53,27.79
4.35,27.81
4.15,27.82
4.04,27.83
3.92,27.84
3.74,27.85
3.62,27.87
3.63,27.88
3.73,27.89
3.81,27.90
3.75,27.92
3.64,27.93
3.45,27.94
3.27,27.96
3.20,27.97
3.29,27.98
3.41,27.99
3.42,28.01
3.34,28.02
3.24,28.03
3.14,28.04
3.00,28.05
2.90,28.07
2.94,28.08
3.04,28.09
3.08,28.10
3.20,28.12
3.28,28.13
3.26,28.14
3.24,28.15
3.19,28.17
3.12,28.18
3.03,28.19
2.97,28.20
2.87,28.22
2.82,28.23
2.92,28.24
3.12,28.25
3.33,28.27
3.63,28.28
3.86,28.29
4.05,28.30
4.20,28.32
4.32,28.33
4.42,28.34
4.49,28.35
4.55,28.37
4.60,28.38
4.64,28.39
4.67,28.40
4.70,28.42
4.72,28.43
4.73,28.44
4.75,28.45
4.76,28.47
4.77,28.48
4.77,28.49
4.78,28.50
4.78,28.52
4.79,28.53
4.79,28.54
4.79,28.55
4.79,28.57
4.79,28.58
4.80,28.59
4.80,28.60
4.80,28.62
4.80,28.63
4.80,28.64
4.80,28.65
4.80,28.67
4.73,28.68
4.56,28.69
4.45,28.70
4.29,28.72
4.07,28.73
3.92,28.74
3.79,28.75
3.70,28.77
3.55,28.78
3.46,28.79
3.43,28.80
3.40,28.82
3.38,28.83
3.45,28.84
3.67,28.85
3.72,28.87
3.71,28.88
3.67,28.89
3.56,28.90
3.38,28.92
3.16,28.93
3.03,28.94
2.98,28.95
2.98,28.97
3.02,28.98
3.07,28.99
3.18,29.00
3.27,29.02
3.24,29.03
3.16,29.04
3.03,29.05
2.89,29.07
2.86,29.08
2.91,29.09
2.95,29.10
3.07,29.12
3.09,29.13
3.11,29.14
3.23,29.15
3.30,29.17
3.46,29.18
3.68,29.19
3.90,29.20
4.08,29.22
4.23,29.23
4.34,29.24
4.43,29.25
4.51,29.27
4.57,29.28
4.61,29.29
4.65,29.30
4.68,29.31
4.70,29.33
4.72,29.34
4.74,29.35
4.75,29.37
4.76,29.38
4.77,29.39
4.78,29.40
4.78,29.42
4.79,29.43
4.79,29.44
4.79,29.45
4.79,29.47
4.79,29.48
4.80,29.49
4.80,29.50
4.80,29.51
4.80,29.53
4.80,29.54
4.80,29.55
4.80,29.56
4.75,29.58
4.59,29.59
4.49,29.60
4.45,29.61
4.34,29.63
4.24,29.64
4.15,29.65
4.01,29.67
3.93,29.68
3.84,29.69
3.72,29.70
3.56,29.71
3.41,29.73
3.69,29.74
3.91,29.75
4.09,29.76
4.15,29.78
4.12,29.79
4.06,29.80
4.09,29.81
4.08,29.83
4.01,29.84
3.90,29.85
3.97,29.86
4.02,29.88
3.99,29.89
3.92,29.90
3.88,29.91
3.98,29.93
3.97,29.94
3.93,29.95
3.84,29.96
3.84,29.98
3.78,29.99
3.69,30.00
3.57,30.01
3.57,30.03
3.54,30.04
3.46,30.05
3.35,30.06
3.30,30.08
3.48,30.09
3.74,30.10
3.95,30.11
4.12,30.13
4.26,30.14
4.37,30.15
4.45,30.16
4.52,30.18
4.58,30.19
4.61,30.20
4.63,30.21
4.66,30.23
4.69,30.24
4.71,30.25
4.73,30.26
4.74,30.28
4.75,30.29
4.76,30.30
4.77,30.31
4.78,30.33
4.78,30.34
4.79,30.35
4.79,30.36
4.79,30.38
4.79,30.39
4.72,30.40
4.66,30.41
4.68,30.43
4.71,30.44
4.73,30.45
4.74,30.46
4.75,30.48
4.76,30.49
4.70,30.50
4.61,30.51
4.41,30.53
4.18,30.54
4.15,30.55
4.28,30.56
4.38,30.57
4.46,30.59
4.43,30.60
4.30,30.61
4.13,30.63
4.11,30.64
4.21,30.65
4.28,30.66
4.30,30.68
4.21,30.69
4.12,30.70
4.00,30.71
3.85,30.73
3.71,30.74
3.64,30.75
3.72,30.76
3.94,30.78
4.11,30.79
4.25,30.80
4.36,30.81
4.45,30.82
4.52,30.84
4.56,30.85
4.50,30.86
4.37,30.88
4.14,30.89
3.93,30.90
3.79,30.91
3.62,30.93
3.43,30.94
3.31,30.95
3.39,30.96
3.58,30.97
3.82,30.99
4.02,31.00
4.17,31.01
4.30,31.02
4.40,31.04
4.48,31.05
4.54,31.06
4.59,31.07
4.64,31.09
4.67,31.10
4.69,31.11
4.72,31.13
4.73,31.14
4.75,31.15
4.76,31.16
4.77,31.17
4.77,31.19
4.78,31.20
4.78,31.21
4.79,31.22
4.79,31.24
4.79,31.25
4.79,31.26
4.79,31.27
4.80,31.29
4.80,31.30
4.80,31.31
4.75,31.32
4.59,31.34
4.40,31.35
4.16,31.36
4.12,31.37
4.26,31.39
4.37,31.40
4.45,31.41
4.52,31.42
4.58,31.44
4.62,31.45
4.66,31.46
4.69,31.47
4.71,31.49
4.72,31.50
4.73,31.51
4.75,31.52
4.76,31.54
4.76,31.55
4.77,31.56
4.78,31.57
4.78,31.59
4.79,31.60
4.79,31.61
4.79,31.62
4.79,31.64
4.80,31.65
4.80,31.66
4.80,31.67
4.80,31.69
4.80,31.70
4.80,31.71
4.80,31.72
4.80,31.74
4.80,31.75
4.80,31.76
4.80,31.77
4.72,31.79
4.71,31.80
4.68,31.81
4.58,31.82
4.43,31.84
4.36,31.85
4.32,31.86
4.25,31.87
4.36,31.89
4.45,31.90
4.52,31.91
4.57,31.92
4.62,31.94
4.65,31.95
4.68,31.96
4.71,31.97
4.73,31.99
4.74,32.00
4.75,32.01
4.76,32.02
4.77,32.04
4.78,32.05
4.78,32.06
4.79,32.07
4.76,32.09
4.70,32.10
4.61,32.11
4.61,32.12
4.65,32.14
4.68,32.15